{
    "app_categories": {
        "Connectivity": "Jungiamumas",
        "Development": "Vystymas",
        "Games": "Žaidimai",
        "Graphics": "Grafika",
        "Internet": "Internetas",
        "Money": "Pinigai",
        "Multimedia": "Multimedija",
        "Navigation": "Navigacija",
        "Phone & SMS": "Skambučiai ir SMS",
        "Reading": "Skaitymas",
        "Science & Education": "Mokslas ir mokymasis",
        "Security": "Sauga",
        "Sports & Health": "Sportas ir sveikata",
        "System": "Sistema",
        "Time": "Laikas",
        "Writing": "Rašymas"
    }
}
