{
    "antifeatures": {
        "Ads": "Αυτή η εφαρμογή εμπεριέχει διαφημίσεις",
        "DisabledAlgorithm": "Αυτή η εφαρμογή έχει αδύναμη υπογραφή ασφαλείας",
        "KnownVuln": "Αυτή η εφαρμογή εμπεριέχει μια γνωστή ευπάθεια ασφαλείας",
        "NoSourceSince": "Ο πηγαίος κώδικας δεν είναι πλέον διαθέσιμος, δεν είναι δυνατή η ενημέρωση",
        "NonFreeAdd": "Αυτή η εφαρμογή προωθεί πρόσθετα κλειστού κώδικα",
        "NonFreeAssets": "Αυτή η εφαρμογή εμπεριέχει στοιχεία κλειστού κώδικα",
        "NonFreeDep": "Αυτή η εφαρμογή στηρίζετε σε άλλες εφαρμογές κλειστού κώδικα",
        "NonFreeNet": "Αυτή η εφαρμογή προωθεί υπηρεσίες δικτύου κλειστού κώδικα",
        "Tracking": "Αυτή η εφαρμογή καταγράφει και αναφέρει τη δραστηριότητά σας",
        "UpstreamNonFree": "Ο πηγαίος πηγαίος κώδικας δεν είναι εντελώς ανοιχτός"
    },
    "app_categories": {
        "Connectivity": "Συνδεσιμότητα",
        "Development": "Προγραμματισμός",
        "Games": "Παιχνίδια",
        "Graphics": "Γραφιστικά",
        "Internet": "Διαδίκτυο",
        "Money": "Οικονομικά",
        "Multimedia": "Πολυμέσα",
        "Navigation": "Πλοήγηση",
        "Phone & SMS": "Τηλέφωνο &amp; μηνύματα",
        "Reading": "Ανάγνωση",
        "Science & Education": "Επιστήμη &amp; Εκπαίδευση",
        "Security": "Ασφάλεια",
        "Sports & Health": "Αθλητισμός &amp; Υγεία",
        "System": "Σύστημα",
        "Theming": "Προσωποποίηση",
        "Time": "Χρόνος",
        "Writing": "Συγγραφή",
        "show_all_packages": "Προβολή όλων %d"
    },
    "index": {
        "download_fdroid": "Κατεβάστε Το F-Droid",
        "gpg_signature": "Υπογραφή PGP",
        "introduction": "Το F-Droid είναι ένας κατάλογος εφαρμογών ΕΛΛΑΚ (Ελεύθερο Λογισμικό / Λογισμικό Ανοικτού Κώδικα) για την πλατφόρμα Android. Ο πελάτης διευκολύνει την περιήγηση, την εγκατάσταση και την παρακολούθηση των ενημερώσεων στη συσκευή σας.",
        "screenshot": "Στιγμιότυπο οθόνης Android εφαρμογής F-Droid",
        "title": "Τι είναι το F-Droid;"
    },
    "navigation": {
        "about": "Σχετικά",
        "apps": "εφαρμογές",
        "contribute": "Συνεισφέρετε",
        "documentation": "Έγγραφα",
        "forum": "Φόρουμ",
        "issues": "Θέματα",
        "news": "Νέα"
    },
    "package": {
        "added_on": "Προστέθηκε στις {{ package_added_date }}",
        "anti_features": "Aνεπιθύμητα χαρακτηριστικά",
        "anti_features_warning": "Αυτή η εφαρμογή έχει χαρακτηριστικά που μπορεί να μην σας αρέσουν.",
        "author": "Δημιουργός",
        "build_metadata": "Δημιουργία μεταδεδομένων",
        "changelog": "Ιστορικό αλλαγών",
        "donate": "Δωρεά",
        "download": "Λήψη {{ file_extension }}",
        "flattr": "Flattr",
        "gpg_signature": "Υπογραφή PGP",
        "issue_tracker": "Ιχνηλάτης Θεμάτων",
        "liberapay": "Liberapay",
        "license": "Άδεια",
        "minimum_android_version": "Αυτή η έκδοση απαιτεί Android {{ android_version }} ή νεότερο.",
        "new_in_version": "Νέο στην έκδοση {{ latest_version }}",
        "opencollective": "Ανοιχτή Συλλογικότητα",
        "packages": "Πακέτα",
        "permissions": "Δικαιώματα",
        "signed_by_developer": "Είναι χτισμένο και υπογεγραμμένο από τον αρχικό προγραμματιστή.",
        "signed_by_fdroid": "Είναι χτισμένο και υπογεγραμμένο από το F-Droid, και εγγυημένο ότι θα αντιστοιχεί σε <a href=\"{{ source_code_url }}\">αυτή τη πηγή tarball</a>.",
        "source_code": "Πηγαίος Κώδικας",
        "suggest_downloading_via_fdroid": "Αν και λήψεις APK είναι διαθέσιμες παρακάτω για να σας δώθει η επιλογή, θα πρέπει να γνωρίζετε ότι με την εγκατάσταση με αυτόν τον τρόπο δεν θα λαμβάνετε ειδοποιήσεις ενημέρωσης και είναι ένας λιγότερο ασφαλής τρόπος για να κατεβάσετε. Συνιστούμε να εγκαταστήσετε τον πελάτη F-Droid και να το χρησιμοποιήσετε.",
        "suggested": "προτεινόμενο",
        "technical_info": "Τεχνικές πληροφορίες",
        "translation": "Μεταφράση",
        "version_info": "<b>Έκδοση {{ package_version }}</b> ({{ package_version_code }})",
        "website": "Ιστοσελίδα"
    },
    "permissions": {
        "permdesc_acceptHandovers": "Επιτρέπει στην εφαρμογή να συνεχίσει μια κλήση η οποία ξεκίνησε σε άλλη εφαρμογή.",
        "permdesc_accessBackgroundLocation": "Εάν παραχωρήσετε αυτή την άδεια μαζί με την κατά προσέγγιση ή με ακρίβεια πρόσβαση της τοποθεσίας, η εφαρμογή μπορεί να έχει πρόσβαση στην τοποθεσία σας κατά την εκτέλεση στο παρασκήνιο.",
        "permdesc_accessCoarseLocation": "Αυτή η εφαρμογή μπορεί να ανιχνεύσει την τοποθεσία σας βάσει πηγών δικτύου, όπως κεραίες κινητής τηλεφωνίας και δίκτυα Wi-Fi, αλλά μόνο όταν η εφαρμογή βρίσκεται στο προσκήνιο. Αυτές οι υπηρεσίες τοποθεσίας θα πρέπει να είναι ενεργοποιημένες και διαθέσιμες στο τηλέφωνό σας, προκειμένου να μπορεί να τις χρησιμοποιήσει η εφαρμογή.",
        "permdesc_accessDrmCertificates": "Επιτρέπει σε μια εφαρμογή να παρέχει και να χρησιμοποιεί πιστοποιητικά DRM. Δεν θα χρειαστεί ποτέ για κανονικές εφαρμογές.",
        "permdesc_accessFineLocation": "Αυτή η εφαρμογή μπορεί να ανιχνεύσει την ακριβή τοποθεσία σας όταν βρίσκεται στο προσκήνιο. Αυτές οι υπηρεσίες τοποθεσίας θα πρέπει να είναι ενεργοποιημένες και διαθέσιμες στο τηλέφωνό σας, προκειμένου να μπορεί να τις χρησιμοποιήσει η εφαρμογή. Με την ενεργοποίηση αυτής της ρύθμισης, μπορεί να αυξηθεί η κατανάλωση μπαταρίας.",
        "permdesc_accessImsCallService": "Επιτρέπει στην εφαρμογή τη χρήση της υπηρεσίας IMS για την πραγματοποίηση κλήσεων χωρίς τη δική σας παρέμβαση.",
        "permdesc_accessLocationExtraCommands": "Επιτρέπει στην εφαρμογή την πρόσβαση σε επιπλέον εντολές παρόχου τοποθεσίας. Αυτό μπορεί να δώσει τη δυνατότητα στην εφαρμογή να παρέμβει στη λειτουργία του GPS ή άλλων πηγών τοποθεσίας.",
        "permdesc_accessNetworkConditions": "Επιτρέπει σε μια εφαρμογή να λαμβάνει παρατηρήσεις σχετικά με την κατάσταση δικτύου. Δεν θα πρέπει να απαιτείται ποτέ για κανονικές εφαρμογές.",
        "permdesc_accessNetworkState": "Επιτρέπει στην εφαρμογή την προβολή πληροφοριών σχετικά με συνδέσεις δικτύου, όπως ποια δίκτυα υπάρχουν και είναι συνδεδεμένα.",
        "permdesc_accessNotifications": "Επιτρέπει στην εφαρμογή να ανακτά, να εξετάζει και να απαλείφει ειδοποιήσεις, συμπεριλαμβανομένων εκείνων που δημοσιεύονται από άλλες εφαρμογές.",
        "permdesc_accessWifiState": "Επιτρέπει στην εφαρμογή την προβολή πληροφοριών σχετικά με τη δικτύωση Wi-Fi, όπως εάν το Wi-Fi είναι ενεργοποιημένο και τα ονόματα των συνδεδεμένων συσκευών Wi-Fi.",
        "permdesc_accessWimaxState": "Επιτρέπει στην εφαρμογή να προσδιορίζει εάν το WiMAX είναι ενεργοποιημένο και πληροφορίες σχετικά με τυχόν δίκτυα WiMAX που είναι συνδεδεμένα.",
        "permdesc_access_notification_policy": "Επιτρέπει στην εφαρμογή την εγγραφή και τη σύνταξη διαμόρφωσης για τη λειτουργία \\\"Μην ενοχλείτε\\\".",
        "permdesc_activityRecognition": "Αυτή η εφαρμογή μπορεί να αναγνωρίζει τη σωματική σας δραστηριότητα.",
        "permdesc_addVoicemail": "Επιτρέπει στην εφαρμογή να προσθέτει μηνύματα στα εισερχόμενα του αυτόματου τηλεφωνητή σας.",
        "permdesc_answerPhoneCalls": "Επιτρέπει στην εφαρμογή να απαντά σε μια εισερχόμενη τηλεφωνική κλήση.",
        "permdesc_audioWrite": "Επιτρέπει στην εφαρμογή να τροποποιήσει τη μουσική συλλογή σας.",
        "permdesc_bindCarrierMessagingService": "Επιτρέπει στον κάτοχο τη δέσμευση στη διεπαφή ανωτάτου επιπέδου μιας υπηρεσίας ανταλλαγής μηνυμάτων εταιρείας κινητής τηλεφωνίας. Δεν απαιτείται για συνήθεις εφαρμογές.",
        "permdesc_bindCarrierServices": "Δίνει στον κάτοχο τη δυνατότητα δέσμευσης σε υπηρεσίες εταιρείας κινητής τηλεφωνίας. Δεν απαιτείται ποτέ για κανονικές εφαρμογές.",
        "permdesc_bindConditionProviderService": "Επιτρέπει στον κάτοχο τη σύνδεση στη διεπαφή ανωτάτου επιπέδου ενός παρόχου συνθηκών. Δεν απαιτείται για κανονικές εφαρμογές.",
        "permdesc_bindDreamService": "Επιτρέπει στον κάτοχο τη δέσμευση στη διεπαφή ανωτάτου επιπέδου μιας υπηρεσίας dream. Δεν απαιτείται σε κανονικές εφαρμογές.",
        "permdesc_bindNotificationListenerService": "Επιτρέπει στον κάτοχο τη δέσμευση στη διεπαφή ανωτάτου επιπέδου μιας υπηρεσίας ακρόασης ειδοποιήσεων. Δεν απαιτείται σε κανονικές εφαρμογές.",
        "permdesc_bind_connection_service": "Επιτρέπει στην εφαρμογή να αλληλεπιδρά με υπηρεσίες τηλεφωνίας για την πραγματοποίηση/λήψη κλήσεων.",
        "permdesc_bind_incall_service": "Επιτρέπει στην εφαρμογή να ελέγχει πότε και πώς βλέπει ο χρήστης την οθόνη κατά τη διάρκεια κλήσης.",
        "permdesc_bluetooth": "Επιτρέπει στην εφαρμογή να προβάλλει τη διαμόρφωση του Bluetooth στο τηλέφωνο, καθώς και να πραγματοποιεί και να αποδέχεται συνδέσεις με συνδεδεμένες συσκευές.",
        "permdesc_bluetoothAdmin": "Επιτρέπει στην εφαρμογή τη διαμόρφωση του τοπικού tablet Bluetooth, τον εντοπισμό και τη σύζευξη με απομακρυσμένες συσκευές.",
        "permdesc_bodySensors": "Επιτρέπει στην εφαρμογή να αποκτήσει πρόσβαση στα δεδομένα των αισθητήρων που παρακολουθούν τη φυσική σας κατάσταση, όπως τον καρδιακό ρυθμό σας.",
        "permdesc_broadcastSticky": "Επιτρέπει στην εφαρμογή την αποστολή εκπομπών sticky, οι οποίες παραμένουν μετά το τέλος της εκπομπής. Η υπερβολική χρήση ενδέχεται να καταστήσει τη λειτουργία του τηλεφώνου αργή ή ασταθή, προκαλώντας τη χρήση μεγάλου τμήματος της μνήμης.",
        "permdesc_callCompanionApp": "Επιτρέπει στην εφαρμογή να βλέπει και να ελέγχει τις τρέχουσες κλήσεις στη συσκευή. Αυτό περιλαμβάνει πληροφορίες όπως τους αριθμούς τηλεφώνων και την κατάσταση των κλήσεων.",
        "permdesc_callPhone": "Επιτρέπει στην εφαρμογή την κλήση αριθμών τηλεφώνου χωρίς δική σας παρέμβαση. Αυτό μπορεί να προκαλέσει μη αναμενόμενες χρεώσεις ή κλήσεις. Έχετε υπόψη ότι δεν επιτρέπεται στην εφαρμογή η κλήση αριθμών έκτακτης ανάγκης. Οι κακόβουλες εφαρμογές ενδέχεται να σας κοστίσουν χρήματα, πραγματοποιώντας κλήσεις χωρίς την έγκρισή σας.",
        "permdesc_camera": "Αυτή η εφαρμογή μπορεί να τραβήξει φωτογραφίες και βίντεο χρησιμοποιώντας την κάμερα, ανά πάσα στιγμή.",
        "permdesc_changeNetworkState": "Επιτρέπει στην εφαρμογή την αλλαγή της κατάστασης συνδεσιμότητας δικτύου.",
        "permdesc_changeTetherState": "Επιτρέπει στην εφαρμογή την αλλαγή της κατάστασης συνδεσιμότητας δικτύου.",
        "permdesc_changeWifiMulticastState": "Επιτρέπει στην εφαρμογή τη λήψη πακέτων που αποστέλλονται σε όλες τις συσκευές σε ένα δίκτυο Wi-Fi, με χρήση διευθύνσεων πολλαπλής διανομής και όχι απλώς στο τηλέφωνό σας. Χρησιμοποιεί περισσότερη ενέργεια σε σχέση με τη λειτουργία χωρίς πολλαπλή διανομή.",
        "permdesc_changeWifiState": "Επιτρέπει στην εφαρμογή τη σύνδεση σε σημεία πρόσβασης Wi-Fi και την αποσύνδεση από αυτά, καθώς και την πραγματοποίηση αλλαγών σε διαμόρφωση συσκευών για δίκτυα Wi-Fi.",
        "permdesc_changeWimaxState": "Επιτρέπει στην εφαρμογή τη σύνδεση στο τηλέφωνο και την αποσύνδεση από αυτό, από δίκτυα WiMAX.",
        "permdesc_connection_manager": "Επιτρέπει στην εφαρμογή να διαχειρίζεται τις συνδέσεις τηλεπικοινωνιών.",
        "permdesc_control_incall_experience": "Επιτρέπει στην εφαρμογή να παρέχει μια εμπειρία στο χρήστη κατά τη διάρκεια κλήσης.",
        "permdesc_createNetworkSockets": "Επιτρέπει στην εφαρμογή τη δημιουργία θέσεων δικτύου και τη χρήση προσαρμοσμένων πρωτοκόλλων δικτύου. Το πρόγραμμα περιήγησης και άλλες εφαρμογές παρέχουν μέσα για την αποστολή δεδομένων στο διαδίκτυο, επομένως η συγκεκριμένη άδεια δεν είναι απαραίτητη για την αποστολή δεδομένων στο διαδίκτυο.",
        "permdesc_disableKeyguard": "Επιτρέπει στην εφαρμογή την απενεργοποίηση του κλειδώματος πληκτρολογίου και άλλης σχετικής ασφάλειας με κωδικό πρόσβασης. Για παράδειγμα, το κλείδωμα πληκτρολογίου στο τηλέφωνο απενεργοποιείται όταν λαμβάνεται εισερχόμενη τηλεφωνική κλήση και ενεργοποιείται ξανά όταν η κλήση τερματιστεί.",
        "permdesc_enableCarMode": "Επιτρέπει στην εφαρμογή την ενεργοποίηση της λειτουργίας αυτοκινήτου.",
        "permdesc_expandStatusBar": "Επιτρέπει στην εφαρμογή να αναπτύξει ή να συμπτύξει τη γραμμή κατάστασης.",
        "permdesc_foregroundService": "Επιτρέπει στην εφαρμογή να χρησιμοποιεί υπηρεσίες προσκηνίου.",
        "permdesc_getAccounts": "Επιτρέπει στην εφαρμογή τη λήψη της λίστας λογαριασμών που υπάρχουν στο τηλέφωνο. Μπορεί να περιλαμβάνονται τυχόν λογαριασμοί που δημιουργήθηκαν από εφαρμογές που έχετε εγκαταστήσει.",
        "permdesc_getPackageSize": "Επιτρέπει στην εφαρμογή να ανακτήσει τα μεγέθη κώδικα, δεδομένων και προσωρινής μνήμης",
        "permdesc_getTasks": "Επιτρέπει στην εφαρμογή την ανάκτηση πληροφοριών σχετικά με τρέχουσες και πρόσφατα εκτελούμενες εργασίες. Αυτό μπορεί να δίνει τη δυνατότητα στην εφαρμογή να ανακαλύπτει πληροφορίες σχετικά με το ποιες εφαρμογές χρησιμοποιούνται στη συσκευή.",
        "permdesc_handoverStatus": "Επιτρέπει σε αυτήν την εφαρμογή να λαμβάνει πληροφορίες σχετικά με τις τρέχουσες μεταφορές Android Beam",
        "permdesc_imagesWrite": "Επιτρέπει στην εφαρμογή να τροποποιήσει τη συλλογή φωτογραφιών σας.",
        "permdesc_install_shortcut": "Επιτρέπει σε μια εφαρμογή την προσθήκη συντομεύσεων στην Αρχική οθόνη χωρίς την παρέμβαση του χρήστη.",
        "permdesc_invokeCarrierSetup": "Επιτρέπει στον κάτοχο την κλήση της εφαρμογής διαμόρφωσης που παρέχεται από την εταιρεία κινητής τηλεφωνίας. Δεν απαιτείται για κανονικές εφαρμογές.",
        "permdesc_killBackgroundProcesses": "Επιτρέπει στην εφαρμογή τον τερματισμό των διεργασιών παρασκηνίου άλλων εφαρμογών. Αυτό μπορεί να προκαλεί τη διακοπή λειτουργίας άλλων εφαρμογών.",
        "permdesc_manageFace": "Επιτρέπει στην εφαρμογή να επικαλείται μεθόδους για προσθήκη και διαγραφή προτύπων προσώπων για χρήση.",
        "permdesc_manageFingerprint": "Επιτρέπει στην εφαρμογή να επικαλείται μεθόδους για την προσθήκη και τη διαγραφή προτύπων μοναδικού χαρακτηριστικού για χρήση.",
        "permdesc_manageNetworkPolicy": "Επιτρέπει στην εφαρμογή τη διαχείριση των πολιτικών δικτύου και τον ορισμό κανόνων για ορισμένες εφαρμογές.",
        "permdesc_manageOwnCalls": "Επιτρέπει στην εφαρμογή να δρομολογεί τις κλήσεις της μέσω του συστήματος για να βελτιώσει την εμπειρία κλήσης.",
        "permdesc_manageProfileAndDeviceOwners": "Επιτρέπει σε εφαρμογές να ορίζουν τους κατόχους προφίλ και τον κάτοχο της συσκευής.",
        "permdesc_mediaLocation": "Επιτρέπει στην εφαρμογή να διαβάσει τοποθεσίες από τη συλλογή πολυμέσων σας.",
        "permdesc_modifyAudioSettings": "Επιτρέπει στην εφαρμογή την τροποποίηση καθολικών ρυθμίσεων ήχου, όπως η ένταση και ποιο ηχείο χρησιμοποιείται για έξοδο.",
        "permdesc_modifyNetworkAccounting": "Επιτρέπει στην εφαρμογή την τροποποίηση του τρόπου υπολογισμού της χρήσης δικτύου έναντι των εφαρμογών. Δεν προορίζεται για χρήση από συνήθεις εφαρμογές.",
        "permdesc_nfc": "Επιτρέπει στην εφαρμογή την επικοινωνία με ετικέτες, κάρτες και αναγνώστες της Επικοινωνίας κοντινού πεδίου (NFC).",
        "permdesc_persistentActivity": "Επιτρέπει στην εφαρμογή να δημιουργεί μόνιμα τμήματα του εαυτού της στη μνήμη. Αυτό μπορεί να περιορίζει τη μνήμη που διατίθεται σε άλλες εφαρμογές, καθυστερώντας τη λειτουργία του τηλεφώνου.",
        "permdesc_processOutgoingCalls": "Επιτρέπει στην εφαρμογή να βλέπει τον αριθμό που καλέσατε κατά τη διάρκεια μιας εξερχόμενης κλήσης με επιλογή ανακατεύθυνσης της κλήσης σε έναν διαφορετικό αριθμό ή διακοπής της κλήσης.",
        "permdesc_readCalendar": "Αυτή η εφαρμογή μπορεί να διαβάσει όλα τα συμβάντα ημερολογίου που είναι αποθηκευμένα στο τηλέφωνό σας και να μοιραστεί ή να αποθηκεύσει τα δεδομένα ημερολογίου σας.",
        "permdesc_readCallLog": "Αυτή η εφαρμογή μπορεί να διαβάσει το ιστορικό κλήσεων.",
        "permdesc_readCellBroadcasts": "Επιτρέπει στην εφαρμογή την ανάγνωση μηνυμάτων που έχουν μεταδοθεί μέσω κινητού τηλεφώνου και έχουν ληφθεί από τη συσκευή σας. Ειδοποιήσεις που μεταδίδονται μέσω κινητού παραδίδονται σε ορισμένες τοποθεσίες για να σας προειδοποιήσουν για καταστάσεις έκτακτης ανάγκης. Κακόβουλες εφαρμογές ενδέχεται να παρεμποδίσουν την απόδοση ή τη λειτουργία της συσκευής σας κατά τη λήψη μετάδοσης μέσω κινητού σχετικά με μια επείγουσα κατάσταση.",
        "permdesc_readContacts": "Επιτρέπει στην εφαρμογή την ανάγνωση δεδομένων σχετικά με τις επαφές σας που είναι αποθηκευμένες στο τηλέφωνό σας, συμπεριλαμβανομένης της συχνότητας με την οποία έχετε καλέσει συγκεκριμένα άτομα ή έχετε επικοινωνήσει μαζί τους μέσω ηλεκτρονικού ταχυδρομείου ή άλλου τρόπου. Αυτή η άδεια δίνει τη δυνατότητα σε εφαρμογές να αποθηκεύουν τα δεδομένα των επαφών σας και οι κακόβουλες εφαρμογές ενδέχεται να μοιράζονται δεδομένα επαφών χωρίς να το γνωρίζετε.",
        "permdesc_readHistoryBookmarks": "Επιτρέπει στην εφαρμογή την ανάγνωση του ιστορικού όλων των διευθύνσεων URL που έχει επισκεφτεί το πρόγραμμα περιήγησης, καθώς και όλων των σελιδοδεικτών του προγράμματος περιήγησης. Σημείωση: αυτή η άδεια ίσως να μην μπορεί να εφαρμοστεί από τρίτα προγράμματα περιήγησης ή άλλες εφαρμογές με δυνατότητες περιήγησης ιστού.",
        "permdesc_readInstallSessions": "Επιτρέπει σε μια εφαρμογή την ανάγνωση των περιόδων σύνδεσης εγκατάστασης. Αυτό της επιτρέπει να βλέπει λεπτομέρειες σχετικά με τις εγκαταστάσεις του ενεργού πακέτου.",
        "permdesc_readNetworkUsageHistory": "Επιτρέπει στην εφαρμογή την ανάγνωση ιστορικών στοιχείων χρήσης δικτύου για συγκεκριμένα δίκτυα και εφαρμογές.",
        "permdesc_readPhoneNumbers": "Επιτρέπει στην εφαρμογή να αποκτήσει πρόσβαση στους αριθμούς τηλεφώνου της συσκευής.",
        "permdesc_readPhoneState": "Επιτρέπει στην εφαρμογή την πρόσβαση στις λειτουργίες τηλεφώνου της συσκευής. Αυτή η άδεια δίνει τη δυνατότητα στην εφαρμογή να καθορίζει τον αριθμό τηλεφώνου και τα αναγνωριστικά συσκευών, εάν μια κλήση είναι ενεργή, καθώς και τον απομακρυσμένο αριθμό που συνδέεται από μια κλήση.",
        "permdesc_readSms": "Αυτή η εφαρμογή μπορεί να διαβάσει όλα τα μηνύματα SMS (κειμένου) που είναι αποθηκευμένα στο τηλέφωνό σας.",
        "permdesc_readSyncSettings": "Επιτρέπει στην εφαρμογή την ανάγνωση των ρυθμίσεων συγχρονισμού για έναν λογαριασμό. Για παράδειγμα, αυτό μπορεί να καθορίσει εάν η εφαρμογή \\\"Άτομα\\\" είναι συγχρονισμένη με έναν λογαριασμό.",
        "permdesc_readSyncStats": "Επιτρέπει σε μια εφαρμογή την ανάγνωση των στατιστικών στοιχείων συγχρονισμού για έναν λογαριασμό, συμπεριλαμβανομένων του ιστορικού των συμβάντων συγχρονισμού και του όγκου των δεδομένων που συγχρονίζονται.",
        "permdesc_receiveBootCompleted": "Επιτρέπει στην εφαρμογή να εκκινηθεί αμέσως μόλις ολοκληρωθεί η εκκίνηση του συστήματος. Αυτό ενδέχεται να καθυστερήσει την εκκίνηση του τηλεφώνου και να προκαλέσει γενική μείωση της ταχύτητας λειτουργίας του τηλεφώνου, καθώς η εφαρμογή θα εκτελείται συνεχώς.",
        "permdesc_receiveMms": "Επιτρέπει στην εφαρμογή τη λήψη και την επεξεργασία μηνυμάτων MMS. Αυτό σημαίνει ότι η εφαρμογή θα μπορούσε να παρακολουθήσει ή να διαγράψει τα μηνύματα που αποστέλλονται στη συσκευή σας χωρίς αυτά να εμφανιστούν σε εσάς.",
        "permdesc_receiveSms": "Επιτρέπει στην εφαρμογή τη λήψη και την επεξεργασία μηνυμάτων SMS. Αυτό σημαίνει ότι η εφαρμογή θα μπορούσε να παρακολουθήσει ή να διαγράψει τα μηνύματα που αποστέλλονται στη συσκευή σας χωρίς αυτά να εμφανιστούν σε εσάς.",
        "permdesc_receiveWapPush": "Επιτρέπει στην εφαρμογή τη λήψη και την επεξεργασία μηνυμάτων WAP. Αυτό σημαίνει ότι η εφαρμογή θα μπορούσε να παρακολουθήσει ή να διαγράψει τα μηνύματα που αποστέλλονται στη συσκευή σας χωρίς αυτά να εμφανιστούν σε εσάς.",
        "permdesc_recordAudio": "Αυτή η εφαρμογή μπορεί να κάνει εγγραφή ήχου χρησιμοποιώντας το μικρόφωνο, ανά πάσα στιγμή.",
        "permdesc_register_call_provider": "Επιτρέπει στην εφαρμογή την εγγραφή νέων συνδέσεων τηλεπικοινωνιών.",
        "permdesc_register_sim_subscription": "Επιτρέπει στην εφαρμογή την εγγραφή νέων συνδέσεων SIM τηλεπικοινωνιών.",
        "permdesc_removeDrmCertificates": "Επιτρέπει σε μια εφαρμογή την κατάργηση πιστοποιητικών DRM. Δεν χρειάζεται ποτέ για κανονικές εφαρμογές.",
        "permdesc_reorderTasks": "Επιτρέπει στην εφαρμογή τη μετακίνηση εργασιών στο προσκήνιο και το παρασκήνιο. Η εφαρμογή μπορεί να το κάνει αυτό χωρίς να καταχωρίσετε δεδομένα εισόδου.",
        "permdesc_requestDeletePackages": "Επιτρέπει σε μια εφαρμογή να ζητά διαγραφή πακέτων.",
        "permdesc_requestIgnoreBatteryOptimizations": "Επιτρέπει σε μια εφαρμογή να ζητήσει άδεια για την αγνόηση βελτιστοποιήσεων της μπαταρίας για τη συγκεκριμένη εφαρμογή.",
        "permdesc_requestInstallPackages": "Επιτρέπει σε μια εφαρμογή να ζητά εγκατάσταση πακέτων.",
        "permdesc_requestPasswordComplexity": "Επιτρέπει στην εφαρμογή να μάθει το επίπεδο πολυπλοκότητας του κλειδώματος οθόνης (υψηλό, μέσο, χαμηλό ή κανένα), το οποίο υποδεικνύει το πιθανό εύρος του μήκους και του τύπου κλειδώματος οθόνης. Η εφαρμογή μπορεί επίσης να προτείνει στους χρήστες να ενημερώσουν το κλείδωμα οθόνης σε ένα συγκεκριμένο επίπεδο, όμως οι χρήστες μπορούν να την αγνοήσουν και να συνεχίσουν. Λάβετε υπόψη ότι το κλείδωμα οθόνης δεν αποθηκεύεται σε απλό κείμενο. Συνεπώς, η εφαρμογή δεν γνωρίζει τον κωδικό.",
        "permdesc_route_media_output": "Επιτρέπει σε μια εφαρμογή τη διαγραφή διαδρομής δεδομένων εξόδου μέσων σε άλλες εξωτερικές συσκευές.",
        "permdesc_runInBackground": "Αυτή η εφαρμογή μπορεί να εκτελείται στο παρασκήνιο. Αυτό μπορεί να εξαντλήσει πιο γρήγορα την μπαταρία.",
        "permdesc_sdcardRead": "Επιτρέπει στην εφαρμογή την ανάγνωση του περιεχομένου του κοινόχρηστου αποθηκευτικού χώρου σας.",
        "permdesc_sdcardWrite": "Επιτρέπει στην εφαρμογή την εγγραφή του περιεχομένου του κοινόχρηστου αποθηκευτικού χώρου σας.",
        "permdesc_sendSms": "Επιτρέπει στην εφαρμογή των αποστολή μηνυμάτων SMS. Αυτό μπορεί να προκαλέσει μη αναμενόμενες χρεώσεις. Οι κακόβουλες εφαρμογές ενδέχεται να σας κοστίσουν χρήματα, αποστέλλοντας μηνύματα χωρίς την έγκρισή σας.",
        "permdesc_setAlarm": "Επιτρέπει στην εφαρμογή τη ρύθμιση μιας ειδοποίησης σε μια εγκατεστημένη εφαρμογή ξυπνητηριού. Ορισμένες εφαρμογές ξυπνητηριού ενδέχεται να μην μπορούν να ενσωματώσουν αυτήν τη λειτουργία.",
        "permdesc_setInputCalibration": "Επιτρέπει στην εφαρμογή να τροποποιεί τις παραμέτρους βαθμονόμησης της οθόνης αφής. Δεν απαιτείται για τις κανονικές εφαρμογές.",
        "permdesc_setTimeZone": "Επιτρέπει στην εφαρμογή την αλλαγή της ζώνης ώρας του τηλεφώνου.",
        "permdesc_setWallpaper": "Επιτρέπει στην εφαρμογή τον ορισμό της ταπετσαρίας συστήματος.",
        "permdesc_setWallpaperHints": "Επιτρέπει στην εφαρμογή τον ορισμό συμβουλών μεγέθους ταπετσαρίας συστήματος.",
        "permdesc_sim_communication": "Επιτρέπει στην εφαρμογή την αποστολή εντολών στην κάρτα SIM. Αυτό είναι εξαιρετικά επικίνδυνο.",
        "permdesc_startViewPermissionUsage": "Επιτρέπει στον κάτοχο να ξεκινήσει τη χρήση της άδειας για μια εφαρμογή. Δεν απαιτείται ποτέ για κανονικές εφαρμογές.",
        "permdesc_statusBar": "Επιτρέπει στην εφαρμογή να απενεργοποιεί τη γραμμή κατάστασης ή να προσθέτει και να αφαιρεί εικονίδια συστήματος.",
        "permdesc_statusBarService": "Επιτρέπει στην εφαρμογή να αποτελεί τη γραμμή κατάστασης.",
        "permdesc_subscribedFeedsRead": "Επιτρέπει στην εφαρμογή τη λήψη λεπτομερειών σχετικά με τις τρέχουσες συγχρονισμένες ροές δεδομένων.",
        "permdesc_systemAlertWindow": "Αυτή η εφαρμογή μπορεί να εμφανίζεται πάνω από άλλες εφαρμογές ή άλλα τμήματα της οθόνης. Αυτό μπορεί να επηρεάσει την κανονική χρήση της εφαρμογής και να αλλάξει τον τρόπο με τον οποίο εμφανίζονται οι άλλες εφαρμογές.",
        "permdesc_transmitIr": "Επιτρέπει στην εφαρμογή να χρησιμοποιεί τον πομπό υπερύθρων του τηλεφώνου.",
        "permdesc_uninstall_shortcut": "Επιτρέπει στην εφαρμογή την κατάργηση συντομεύσεων από την Αρχική οθόνη χωρίς την παρέμβαση του χρήστη.",
        "permdesc_useBiometric": "Επιτρέπει στην εφαρμογή να χρησιμοποιεί βιομετρικό εξοπλισμό για έλεγχο ταυτότητας",
        "permdesc_useDataInBackground": "Αυτή η εφαρμογή μπορεί να χρησιμοποιεί δεδομένα στο παρασκήνιο. Αυτό μπορεί να αυξήσει τη χρήση δεδομένων.",
        "permdesc_useFaceAuthentication": "Επιτρέπει στην εφαρμογή να χρησιμοποιεί εργαλεία ελέγχου ταυτότητας προσώπου για ταυτοποίηση",
        "permdesc_useFingerprint": "Επιτρέπει στην εφαρμογή να χρησιμοποιεί εξοπλισμό μοναδικού χαρακτηριστικού για έλεγχο ταυτότητας",
        "permdesc_use_sip": "Επιτρέπει στην εφαρμογή να πραγματοποιεί και να λαμβάνει κλήσεις SIP.",
        "permdesc_vibrate": "Επιτρέπει στην εφαρμογή τον έλεγχο της δόνησης.",
        "permdesc_videoWrite": "Επιτρέπει στην εφαρμογή να τροποποιήσει τη συλλογή βίντεο σας.",
        "permdesc_wakeLock": "Επιτρέπει στην εφαρμογή την παρεμπόδιση της μετάβασης του τηλεφώνου σε κατάσταση αδράνειας.",
        "permdesc_writeCalendar": "Αυτή η εφαρμογή μπορεί να προσθέσει, να καταργήσει ή να αλλάξει συμβάντα ημερολογίου στο τηλέφωνό σας. Αυτή η εφαρμογή μπορεί να στέλνει μηνύματα τα οποία μπορεί να φαίνεται ότι προέρχονται από κατόχους ημερολογίου ή να αλλάζει συμβάντα χωρίς να ειδοποιεί τους κατόχους.",
        "permdesc_writeCallLog": "Επιτρέπει στην εφαρμογή να τροποποιεί το αρχείο καταγραφής κλήσεων του τηλεφώνου σας, συμπεριλαμβανομένων των δεδομένων σχετικά με τις εισερχόμενες και τις εξερχόμενες κλήσεις. Οι κακόβουλες εφαρμογές μπορεί να το χρησιμοποιήσουν για να διαγράψουν ή να τροποποιήσουν το αρχείο καταγραφής κλήσεων.",
        "permdesc_writeContacts": "Επιτρέπει στην εφαρμογή την τροποποίηση των δεδομένων σχετικά με τις επαφές σας που είναι αποθηκευμένες στο τηλέφωνό σας, συμπεριλαμβανομένης της συχνότητας με την οποία έχετε καλέσει συγκεκριμένες επαφές ή έχετε επικοινωνήσει μαζί τους μέσω ηλεκτρονικού ταχυδρομείου ή άλλου τρόπου. Αυτή η άδεια δίνει τη δυνατότητα σε εφαρμογές να διαγράφουν δεδομένα επαφών.",
        "permdesc_writeGeolocationPermissions": "Επιτρέπει στην εφαρμογή την τροποποίηση των αδειών γεωτοποθεσίας του Προγράμματος περιήγησης. Τυχόν κακόβουλες εφαρμογές ενδέχεται να το χρησιμοποιήσουν για να επιτρέψουν την αποστολή πληροφοριών τοποθεσίας σε αυθαίρετους ιστότοπους.",
        "permdesc_writeHistoryBookmarks": "Επιτρέπει στην εφαρμογή την τροποποίηση του ιστορικού του προγράμματος περιήγησης ή των σελιδοδεικτών που έχουν αποθηκευτεί στο τηλέφωνό σας. Αυτό μπορεί να δίνει τη δυνατότητα στην εφαρμογή να διαγράφει ή να τροποποιεί δεδομένα του προγράμματος περιήγησης. Σημείωση: αυτή η άδεια ίσως να μην μπορεί να εφαρμοστεί από τρίτα προγράμματα περιήγησης ή άλλες εφαρμογές με δυνατότητες περιήγησης ιστού.",
        "permdesc_writeSettings": "Επιτρέπει στην εφαρμογή την τροποποίηση των δεδομένων των ρυθμίσεων του συστήματος. Τυχόν κακόβουλες εφαρμογές ενδέχεται να καταστρέψουν τη διαμόρφωση του συστήματός σας.",
        "permdesc_writeSyncSettings": "Επιτρέπει σε μια εφαρμογή την τροποποίηση των ρυθμίσεων συγχρονισμού για έναν λογαριασμό. Για παράδειγμα, αυτό μπορεί να χρησιμοποιηθεί για να ενεργοποιηθεί ο συγχρονισμός της εφαρμογής \\\"Άτομα\\\" με έναν λογαριασμό.",
        "permgroupbackgroundrequest_location": "Να επιτρέπεται η πρόσβαση της εφαρμογής <b>",
        "permgroupbackgroundrequestdetail_location": "Οι εφαρμογές μπορούν αυτήν τη στιγμή να έχουν πρόσβαση στην τοποθεσία μόνο κατά τη χρήση της εφαρμογής",
        "permgroupdesc_activityRecognition": "πρόσβαση στη σωματική σας δραστηριότητα",
        "permgroupdesc_calendar": "έχει πρόσβαση στο ημερολόγιό σας",
        "permgroupdesc_calllog": "ανάγνωση και εγγραφή αρχείου καταγραφής τηλεφωνικών κλήσεων",
        "permgroupdesc_camera": "γίνεται λήψη φωτογραφιών και εγγραφή βίντεο",
        "permgroupdesc_contacts": "πρόσβαση στις επαφές σας",
        "permgroupdesc_location": "έχει πρόσβαση στην τοποθεσία της συσκευής",
        "permgroupdesc_microphone": "ηχογραφεί",
        "permgroupdesc_phone": "πραγματοποιεί και να διαχειρίζεται τηλ/κές κλήσεις",
        "permgroupdesc_sensors": "πρόσβαση στα δεδομένα αισθητήρα σχετικά με τις ζωτικές ενδείξεις σας",
        "permgroupdesc_sms": "στέλνει και να διαβάζει μηνύματα SMS",
        "permgroupdesc_storage": "έχει πρόσβαση στις φωτογραφίες/πολυμέσα/αρχεία στη συσκευή σας",
        "permgrouplab_activityRecognition": "Σωματική δραστηριότητα",
        "permgrouplab_calendar": "Ημερολόγιο",
        "permgrouplab_calllog": "Αρχεία καταγραφής κλήσεων",
        "permgrouplab_camera": "Κάμερα",
        "permgrouplab_contacts": "Επαφές",
        "permgrouplab_location": "Τοποθεσία",
        "permgrouplab_microphone": "Μικρόφωνο",
        "permgrouplab_phone": "Τηλέφωνο",
        "permgrouplab_sensors": "Αισθητήρες σώματος",
        "permgrouplab_sms": "SMS",
        "permgrouplab_storage": "Αποθηκευτικός χώρος",
        "permgrouprequest_activityRecognition": "Να επιτρέπεται στην εφαρμογή <b>",
        "permgrouprequest_calendar": "Να επιτρέπεται στην εφαρμογή <b>",
        "permgrouprequest_calllog": "Να επιτρέπεται στην εφαρμογή <b>",
        "permgrouprequest_camera": "Να επιτρέπεται στην εφαρμογή <b>",
        "permgrouprequest_contacts": "Να επιτρέπεται στην εφαρμογή <b>",
        "permgrouprequest_location": "Να επιτρέπεται στην εφαρμογή <b>",
        "permgrouprequest_microphone": "Να επιτρέπεται στην εφαρμογή <b>",
        "permgrouprequest_phone": "Να επιτρέπεται στην εφαρμογή <b>",
        "permgrouprequest_sensors": "Να επιτρέπεται στην εφαρμογή <b>",
        "permgrouprequest_sms": "Να επιτρέπεται στην εφαρμογή <b>",
        "permgrouprequest_storage": "Να επιτρέπεται στην εφαρμογή <b>",
        "permgrouprequestdetail_location": "Η εφαρμογή θα έχει πρόσβαση στην τοποθεσία μόνο κατά τη διάρκεια χρήσης της εφαρμογής",
        "permlab_acceptHandover": "συνέχιση κλήσης από άλλη συσκευή",
        "permlab_accessBackgroundLocation": "πρόσβαση στην τοποθεσία στο παρασκήνιο",
        "permlab_accessCoarseLocation": "πρόσβαση στην κατά προσέγγιση τοποθεσία (βάσει δικτύου) μόνο στο προσκήνιο",
        "permlab_accessDrmCertificates": "έχει πρόσβαση σε πιστοποιητικά DRM",
        "permlab_accessFineLocation": "πρόσβαση στην ακριβή τοποθεσία μόνο στο προσκήνιο",
        "permlab_accessImsCallService": "έχει πρόσβαση στην υπηρεσία κλήσεων της IMS",
        "permlab_accessLocationExtraCommands": "έχει πρόσβαση σε επιπλέον εντολές παρόχου τοποθεσίας",
        "permlab_accessNetworkConditions": "ανιχνεύει παρατηρήσεις σχετικά με την κατάσταση δικτύου",
        "permlab_accessNetworkState": "βλέπει τις συνδέσεις δικτύου",
        "permlab_accessNotifications": "έχει πρόσβαση στις ειδοποιήσεις",
        "permlab_accessWifiState": "βλέπει τις συνδέσεις Wi-Fi",
        "permlab_accessWimaxState": "σύνδεση και αποσύνδεση από το WiMAX",
        "permlab_access_notification_policy": "έχει πρόσβαση στη λειτουργία \\\"Μην ενοχλείτε\\",
        "permlab_activityRecognition": "αναγνώριση σωματικής δραστηριότητας",
        "permlab_addVoicemail": "προσθέτει τηλεφωνητή",
        "permlab_answerPhoneCalls": "απάντηση σε τηλεφωνικές κλήσεις",
        "permlab_audioWrite": "τροποποίηση της μουσικής συλλογής σας",
        "permlab_bindCarrierMessagingService": "δεσμεύεται σε υπηρεσία ανταλλαγής μηνυμάτων παρόχου κινητής τηλεφωνίας",
        "permlab_bindCarrierServices": "δεσμεύεται σε υπηρεσίες του παρόχου κινητής τηλεφωνίας",
        "permlab_bindConditionProviderService": "δεσμεύεται σε μια υπηρεσία παρόχου συνθηκών",
        "permlab_bindDreamService": "δεσμεύεται σε υπηρεσία dream",
        "permlab_bindNotificationListenerService": "συνδέεται σε υπηρεσία ακρόασης ειδοποίησης",
        "permlab_bind_connection_service": "αλληλεπιδρά με υπηρεσίες τηλεφωνίας",
        "permlab_bind_incall_service": "αλληλεπιδρά με την οθόνη κατά τη διάρκεια κλήσης",
        "permlab_bluetooth": "πραγματοποιεί σύζευξη με συσκευές Bluetooth",
        "permlab_bluetoothAdmin": "διαβάζει τις ρυθμίσεις Bluetooth",
        "permlab_bodySensors": "πρόσβαση στους αισθητήρες λειτουργιών (π.χ. παρακολούθηση καρδιακού παλμού)",
        "permlab_broadcastSticky": "στέλνει εκπομπή sticky",
        "permlab_callCompanionApp": "προβολή και έλεγχος κλήσεων μέσω του συστήματος.",
        "permlab_callPhone": "πραγματοποιεί απευθείας κλήση τηλεφωνικών αριθμών",
        "permlab_camera": "κάνει λήψη φωτογραφιών και βίντεο",
        "permlab_changeNetworkState": "αλλάζει την συνδεσιμότητα δικτύου",
        "permlab_changeTetherState": "αλλάζει συνδεσιμότητα μέσω σύνδεσης με κινητή συσκευή",
        "permlab_changeWifiMulticastState": "επιτρέπει την λήψη πολλαπλής διανομής Wi-Fi",
        "permlab_changeWifiState": "συνδέεται/αποσυνδέεται από το Wi-Fi",
        "permlab_changeWimaxState": "αλλαγή κατάστασης WiMAX",
        "permlab_connection_manager": "διαχειρίζεται τις συνδέσεις τηλεπικοινωνιών",
        "permlab_control_incall_experience": "παρέχει εμπειρία χρήστη κατά τη διάρκεια κλήσης",
        "permlab_createNetworkSockets": "έχει πλήρη πρόσβαση στο δίκτυο",
        "permlab_disableKeyguard": "απενεργοποιεί το κλείδωμα οθόνης",
        "permlab_enableCarMode": "ενεργοποιεί την λειτουργία αυτοκινήτου",
        "permlab_expandStatusBar": "αναπτύσσει/συμπτύσσει τη γραμμή κατάστασης",
        "permlab_foregroundService": "εκτέλεση υπηρεσίας προσκηνίου",
        "permlab_getAccounts": "βρίσκει λογαριασμούς στη συσκευή",
        "permlab_getPackageSize": "υπολογίζει τον αποθηκευτικό χώρο εφαρμογής",
        "permlab_getTasks": "ανακτά εκτελούμενες εφαρμογές",
        "permlab_handoverStatus": "λήψη κατάστασης μεταφοράς Android Beam",
        "permlab_imagesWrite": "τροποποίηση της συλλογής φωτογραφιών σας",
        "permlab_install_shortcut": "εγκαθιστά συντομεύσεις",
        "permlab_invokeCarrierSetup": "καλέι την εφαρμογή διαμόρφωσης του παρόχου κινητής τηλεφωνίας",
        "permlab_killBackgroundProcesses": "κλείνει άλλες εφαρμογές",
        "permlab_manageFace": "διαχείριση εργαλείων ελέγχου ταυτότητας προσώπου",
        "permlab_manageFingerprint": "διαχειρίζεται τον εξοπλισμό δακτυλικού αποτυπώματος",
        "permlab_manageNetworkPolicy": "διαχειρίζεται την πολιτική δικτύου",
        "permlab_manageOwnCalls": "δρομολόγηση κλήσεων μέσω του συστήματος",
        "permlab_manageProfileAndDeviceOwners": "διαχειρίζεται το προφίλ και τους κατόχους συσκευής",
        "permlab_mediaLocation": "ανάγνωση τοποθεσιών από τη συλλογή των πολυμέσων σας",
        "permlab_modifyAudioSettings": "αλλάζει τις ρυθμίσεις ήχου",
        "permlab_modifyNetworkAccounting": "τροποποιεί τον υπολογισμό χρήσης δικτύου",
        "permlab_nfc": "ελέγχει την Επικοινωνία κοντινού πεδίου (FNC)",
        "permlab_persistentActivity": "επιτρέπει στην εφαρμογή να εκτελείται συνεχώς",
        "permlab_processOutgoingCalls": "αναδρομολογεί τις εξερχόμενες κλήσεις",
        "permlab_readCalendar": "Ανάγνωση συμβάντων ημερολογίου και λεπτομερειών",
        "permlab_readCallLog": "διαβάζει το αρχείο καταγραφής κλήσεων",
        "permlab_readCellBroadcasts": "διαβάζει μηνύματα που έχουν μεταδοθεί μέσω κινητού τηλεφώνου",
        "permlab_readContacts": "διαβάζει τις επαφές σας",
        "permlab_readHistoryBookmarks": "διαβάζει τους σελιδοδείκτες και το ιστορικού ιστού",
        "permlab_readInstallSessions": "διαβάζει τις περιόδους σύνδεσης εγκατάστασης",
        "permlab_readNetworkUsageHistory": "διαβάζει ιστορικά στοιχεία δεδομένων χρήσης δικτύου",
        "permlab_readPhoneNumbers": "ανάγνωση αριθμών τηλεφώνου",
        "permlab_readPhoneState": "διαβάζει την κατάσταση και ταυτότητα τηλεφώνου",
        "permlab_readSms": "διαβάζει τα μηνύματα κειμένου (SMS ή MMS)",
        "permlab_readSyncSettings": "διαβάζει τις ρυθμίσεις συγχρονισμού",
        "permlab_readSyncStats": "διαβάζει στατιστικά στοιχεία συγχρονισμού",
        "permlab_receiveBootCompleted": "εκτελείται κατά την έναρξη",
        "permlab_receiveMms": "λαμβάνει μηνύματα κειμένου (MMS)",
        "permlab_receiveSms": "λαμβάνει μηνύματα κειμένου (SMS)",
        "permlab_receiveWapPush": "λαμβάνει μηνύματα κειμένου (WAP)",
        "permlab_recordAudio": "εγγράφει ήχο",
        "permlab_register_call_provider": "πραγματοποιεί εγγραφή των νέων συνδέσεων τηλεπικοινωνιών",
        "permlab_register_sim_subscription": "πραγματοποιεί εγγραφή νέων συνδέσεων SIM τηλεπικοινωνιών",
        "permlab_removeDrmCertificates": "καταργεί πιστοποιητικά DRM",
        "permlab_reorderTasks": "αναδιατάσσει τις εκτελούμενες εφαρμογές",
        "permlab_requestDeletePackages": "αίτημα διαγραφής πακέτων",
        "permlab_requestIgnoreBatteryOptimizations": "αίτημα αγνόησης βελτιστοποιήσεων μπαταρίας",
        "permlab_requestInstallPackages": "ζητά πακέτα εγκατάστασης",
        "permlab_requestPasswordComplexity": "αίτημα πολυπλοκότητας οθόνης κλειδώματος",
        "permlab_route_media_output": "δρομολογεί την έξοδο μέσων",
        "permlab_runInBackground": "εκτέλεση στο παρασκήνιο",
        "permlab_sdcardRead": "ανάγνωση του περιεχομένου του κοινόχρηστου αποθηκευτικού χώρου σας",
        "permlab_sdcardWrite": "τροποποιεί ή διαγράφει το περιεχόμενο του κοινόχρηστου αποθηκευτικού χώρου σας",
        "permlab_sendSms": "στέλνει και να διαβάζει μηνύματα SMS",
        "permlab_setAlarm": "ρυθμίζει το ξυπνητήρι",
        "permlab_setInputCalibration": "αλλαγή βαθμονόμησης της συσκευής εισόδου",
        "permlab_setTimeZone": "ορίζει τη ζώνης ώρας",
        "permlab_setWallpaper": "ορίζει ταπετσαρία",
        "permlab_setWallpaperHints": "ρυθμίζει το μέγεθος της ταπετσαρίας",
        "permlab_sim_communication": "στέλνει εντολές στην κάρτα SIM",
        "permlab_startViewPermissionUsage": "έναρξη προβολής άδειας χρήσης",
        "permlab_statusBar": "απενεργοποιεί ή να τροποποιεί την γραμμή κατάστασης",
        "permlab_statusBarService": "ορίζεται ως γραμμή κατάστασης",
        "permlab_subscribedFeedsRead": "διαβάζει ροές δεδομένων στις οποίες έχετε εγγραφεί",
        "permlab_systemAlertWindow": "Αυτή η εφαρμογή μπορεί να εμφανίζεται πάνω από άλλες εφαρμογές",
        "permlab_transmitIr": "μεταδίδει με υπερύθρες",
        "permlab_uninstall_shortcut": "απεγκατάσταση συντομεύσεων",
        "permlab_useBiometric": "χρήση βιομετρικού εξοπλισμού",
        "permlab_useDataInBackground": "χρήση δεδομένων στο παρασκήνιο",
        "permlab_useFaceAuthentication": "χρήση εργαλείων ελέγχου ταυτότητας προσώπου",
        "permlab_useFingerprint": "χρησιμοποιεί τον εξοπλισμό δακτυλικού αποτυπώματος",
        "permlab_use_sip": "πραγματοποιεί/λαμβάνει κλήσεις SIP",
        "permlab_vibrate": "ελέγχει τη δόνηση",
        "permlab_videoWrite": "τροποποίηση της συλλογής βίντεο σας",
        "permlab_wakeLock": "αποτρέπει το τηλεφώνο να μεταβεί σε κατάσταση αδράνειας",
        "permlab_writeCalendar": "προσθέτει ή τροποποιεί συμβάντα ημερολογίου και να στέλνει μηνύματα ηλ. ταχυδρομείου σε προσκεκλημένους χωρίς να το γνωρίζουν οι κάτοχοι",
        "permlab_writeCallLog": "εγγράφει αρχείο καταγραφής κλήσεων",
        "permlab_writeContacts": "τροποποιεί τις επαφές σας",
        "permlab_writeGeolocationPermissions": "τροποποιεί δικαιώματα γεωγραφικής θέσης του Προγράμματος περιήγησης",
        "permlab_writeHistoryBookmarks": "εγγράφει σελιδοδείκτες και ιστορικό ιστού",
        "permlab_writeSettings": "τροποποίηση ρυθμίσεων συστήματος",
        "permlab_writeSyncSettings": "ενεργοποιεί/απενεργοποιεί τον συγχρονισμό"
    },
    "sidebars": {
        "donate": {
            "bank_transfer_name": "Όνομα",
            "bitcoin_alt": "Δωρίστε μέσω Bitcoin",
            "flattr_alt": "Δωρίστε μέσω του Flattr",
            "heading": "Δωρίστε",
            "hellotux": "👕 Μπλουζάκια 👕 από",
            "hellotux_alt": "HELLOTUX",
            "hellotux_donation": "Το F-Droid θα λάβετε 3€ ανά μπλούζα που πωλείται.",
            "liberapay_alt": "Δωρίστε μέσω Liberapay",
            "litecoin_alt": "Δωρίστε μέσω Litecoin",
            "opencollective_alt": "Δωρίστε στη Συλλογικότητα μας",
            "paypal_alt": "Δωρίστε μέσω PayPal",
            "powered_by_donations": "Το F-Droid τροφοδοτείται από τις δωρεές σας!",
            "via_bank_transfer": "Τραπεζικό έμβασμα"
        },
        "lang": {
            "change": "Αλλαγή"
        },
        "last_updated": {
            "heading": "Τελευταία ενημέρωση"
        },
        "latest_packages": {
            "heading": "Τελευταίες εφαρμογές"
        },
        "news": {
            "heading": "Νέα"
        },
        "search": {
            "heading": "Εύρεση εφαρμογών",
            "noscript": "Απαιτεί την ενεργοποίηση του JavaScript",
            "search": "Αναζήτηση"
        }
    }
}
